130
The structure here is useless! Only to get element indices for lj_fit
Ir      23.54491196      20.73289549      22.58639087
C       23.60179097      22.27886842      23.84620311
N       23.77939557      23.21478499      24.56177549
C       23.99959276      24.44223012      25.34847999
C       24.08684013      25.75465550      24.35476034
C       22.82918631      25.92881570      23.54282818
C       21.42451555      24.87733007      25.49802442
C       22.72025389      24.55570246      26.30670191
C       25.31820953      24.39826459      26.21067094
C       20.27806513      26.57225716      23.86011298
N       19.81058936      25.52014882      22.94188044
C       19.78956700      24.58497488      22.19163356
Ir      19.93309154      23.03363964      20.99900328
C       20.02923857      21.38762311      19.87253305
N       19.80687437      20.42737936      19.21784765
C       19.57803883      19.20242377      18.41900635
C       20.85793589      17.59368685      20.02461024
C       21.96008080      16.48935552      20.14890192
C       23.35182078      17.09556832      19.81038342
N       23.68241806      18.13002042      20.76375062
C       23.58786973      19.18214417      21.33363669
C       24.29182534      21.97539214      21.32179109
N       24.82566424      22.81314714      20.64039435
C       25.72097703      23.63814803      19.75460576
C       23.76426737      25.37745447      19.55654307
C       22.99533704      26.20633130      18.54541966
C       22.04852815      25.25371438      17.61729705
N       21.12126884      24.63437312      18.55873420
C       20.69356354      24.03969477      19.50016764
C       19.14749174      21.96886529      22.46351161
C       21.56359968      17.94953075      25.56149406
C       20.88224300      18.99416788      26.51548269
C       19.93918527      20.00724103      25.79905235
C       17.90376551      20.35266521      24.17962347
C       22.95515522      19.52390052      24.00187434
C       18.94383114      19.33652955      24.84165697
C       17.15742153      21.28322165      25.21575916
C       20.58599605      17.40229162      24.51633386
C       22.16111109      16.74558699      26.32994834
C       19.74441179      18.48225595      23.78616927
C       16.84072189      19.57427807      23.26845100
C       23.04632702      24.25623306      16.92797115
C       24.70817483      24.41586816      18.82119397
C       26.53590367      24.59883746      20.57246935
C       26.70086965      22.72118973      19.01545040
C       23.83627744      23.43507676      17.93711880
C       21.18048552      26.01611636      16.58298905
C       23.29087400      17.69632173      18.39841325
C       20.76446889      18.17414389      18.62219683
C       18.28058593      18.59431879      18.97154062
C       19.47279851      19.64409083      16.95476602
C       22.13619211      18.69336899      18.15685788
C       24.38787589      15.96745247      19.86990588
C       21.65449644      26.12830006      24.51136861
C       20.49071897      27.84757568      22.96697098
C       19.14661576      26.79711966      24.96795439
H       24.30531064      26.60764216      25.03916954
H       24.99828285      25.60064846      23.73307626
H       22.70025460      25.11592016      22.78892518
H       22.94543468      26.87779802      22.97520564
H       20.99509953      24.06753065      24.86152223
H       20.63511595      25.16710380      26.22589023
H       22.94882197      25.33607916      27.07013891
H       22.56997232      23.60029473      26.86036687
H       26.14893090      24.52504696      25.48307671
H       25.51765278      23.48835226      26.81774522
H       25.30832447      25.27844265      26.88978701
H       19.86441604      17.13480038      20.22297485
H       21.03045745      18.34829348      20.82887815
H       21.92843826      16.06898994      21.18024470
H       21.76496228      15.64117959      19.45172644
H       24.19423538      26.06144330      20.32120352
H       22.98441897      24.76681508      20.07107200
H       22.36103991      26.98766162      19.02387124
H       23.66830413      26.73349350      17.82909108
H       20.28483552      18.38661524      27.23486571
H       21.69067197      19.48507618      27.10407659
H       20.53550481      20.77655758      25.25282681
H       19.39305413      20.53940749      26.60884031
H       18.29708696      18.66033898      25.45396490
H       17.82476395      22.07082359      25.62425402
H       16.77278122      20.66828967      26.05841160
H       16.29391583      21.78029396      24.72467808
H       23.14521973      17.00594777      26.77649961
H       22.30067611      15.87848372      25.64824214
H       21.47250598      16.44315660      27.14801970
H       20.44872225      19.10331593      23.18323604
H       19.11356467      17.91975944      23.06339305
H       16.04791404      20.22459396      22.84090425
H       16.35389107      18.79724715      23.89792648
H       17.36879437      19.07321095      22.43065140
H       22.50434533      23.62079713      16.19071892
H       23.75855143      24.88674267      16.34606783
H       25.44089215      24.96531610      18.17987821
H       27.10154663      25.26309980      19.88304388
H       27.26684717      24.00383632      21.16140733
H       25.95425351      25.22929221      21.27660578
H       27.26843950      23.35425395      18.29923299
H       26.30289791      21.83956692      18.47171756
H       27.40537612      22.36011710      19.79460561
H       24.49961170      22.65072383      17.51073512
H       23.14929130      22.92224570      18.65168505
H       21.87836011      26.48723948      15.85772837
H       20.59362303      26.81977781      17.07900020
H       20.47903992      25.36100449      16.02223669
H       24.21631229      18.24187605      18.10276311
H       23.17336899      16.85235538      17.67911121
H       20.44589593      17.40216663      17.87840812
H       18.04466724      17.60986351      18.51187695
H       17.45788352      19.29985602      18.72847085
H       18.31724423      18.47187153      20.07389920
H       19.21698743      18.72178305      16.38830182
H       20.41023538      20.06783226      16.53819918
H       18.65859573      20.38452044      16.80312726
H       22.11468782      18.92373103      17.06912399
H       22.31178160      19.65911160      18.68781201
H       24.12167778      15.31971699      19.00665337
H       24.20530848      15.39685116      20.80657954
H       25.47215259      16.20635361      19.80836141
H       21.98585518      26.83357147      25.31377974
H       21.04240044      27.56812770      22.04573651
H       21.01704571      28.69781281      23.45302213
H       19.47425021      28.18726478      22.67471868
H       18.18006833      27.19055194      24.58769118
H       19.52592878      27.49454703      25.74632226
H       18.95835238      25.80915376      25.43734767
N       18.63499306      21.25348239      23.26244596
N       22.66093416      18.70738185      24.83529295
H       21.11452277      16.74897035      23.78455482
H       19.86098521      16.75270282      25.06066785
